{
    "defaultEnv": "local",
    "local": {
        "driver": "pg",
        "user": {"ENV": "DB_USER"},
        "password": {"ENV": "DB_PASS"},
        "host": {"ENV": "DB_HOST"},
        "database": {"ENV": "DB_NAME"},
        "schema": "public"
    }
}